{
	"info": {
		"_postman_id": "bc8b6ca7-0fdc-4b9c-8ae0-bbdd7efb643c",
		"name": "flask",
		"schema": "https://schema.getpostman.com/json/collection/v2.1.0/collection.json"
	},
	"item": [
		{
			"name": "compile",
			"request": {
				"method": "POST",
				"header": [],
				"body": {
					"mode": "formdata",
					"formdata": [
						{
							"key": "image",
							"type": "file",
							"src": "0tR__CA0z/image.png"
						}
					]
				},
				"url": {
					"raw": "http://127.0.0.1:5000/compile",
					"protocol": "http",
					"host": [
						"127",
						"0",
						"0",
						"1"
					],
					"port": "5000",
					"path": [
						"compile"
					]
				}
			},
			"response": []
		}
	]
}